Challenge 3: Extending Teaching Evaluation Investigations
…
teacher_evals_compare <- teacher_evals_clean %>%
  filter(question_no == 903) %>%
  mutate(
    SET_level = if_else(SET_score_avg >= 4, "excellent", "standard"),
    sen_level = if_else(seniority <= 4, "junior", "senior")
  ) %>%
  select(course_id, SET_level, sen_level)

teacher_evals_compare

# A tibble: 768 × 3
   course_id  SET_level sen_level
   <chr>      <chr>     <chr>    
 1 0000-BHP   standard  junior   
 2 0000-BW-NP standard  senior   
 3 0000-BW-NP standard  junior   
 4 0000-BW-SP excellent senior   
 5 0000-BW-SP standard  junior   
 6 0000-IM-SE excellent senior   
 7 0000-IM-SE excellent senior   
 8 0000-IM-SE standard  junior   
 9 0000-OSH   excellent junior   
10 0000-PE    standard  senior   
# ℹ 758 more rows
…
